simulation/qsim/semaforo_contador.msim.vcd
$comment
	File created using the following command:
		vcd file semaforo_contador.msim.vcd -direction
$end
$date
	Wed May 27 22:04:12 2020
$end
$version
	ModelSim Version 10.5b
$end
$timescale
	1ps
$end

$scope module semaforo_contador_vhd_vec_tst $end
$var wire 1 ! clock19 $end
$var wire 1 " SA1 $end
$var wire 1 # SA2 $end
$var wire 1 $ SA3 $end
$var wire 1 % SB1 $end
$var wire 1 & SB2 $end
$var wire 1 ' SB3 $end

$scope module i1 $end
$var wire 1 ( gnd $end
$var wire 1 ) vcc $end
$var wire 1 * unknown $end
$var wire 1 + devoe $end
$var wire 1 , devclrn $end
$var wire 1 - devpor $end
$var wire 1 . ww_devoe $end
$var wire 1 / ww_devclrn $end
$var wire 1 0 ww_devpor $end
$var wire 1 1 ww_SA1 $end
$var wire 1 2 ww_clock19 $end
$var wire 1 3 ww_SA2 $end
$var wire 1 4 ww_SA3 $end
$var wire 1 5 ww_SB1 $end
$var wire 1 6 ww_SB2 $end
$var wire 1 7 ww_SB3 $end
$var wire 1 8 \SA1~output_o\ $end
$var wire 1 9 \SA2~output_o\ $end
$var wire 1 : \SA3~output_o\ $end
$var wire 1 ; \SB1~output_o\ $end
$var wire 1 < \SB2~output_o\ $end
$var wire 1 = \SB3~output_o\ $end
$var wire 1 > \clock19~input_o\ $end
$var wire 1 ? \inst15~0_combout\ $end
$var wire 1 @ \inst15~feeder_combout\ $end
$var wire 1 A \inst15~q\ $end
$var wire 1 B \inst16~0_combout\ $end
$var wire 1 C \inst16~q\ $end
$var wire 1 D \inst3~0_combout\ $end
$var wire 1 E \inst3~1_combout\ $end
$var wire 1 F \inst3~2_combout\ $end
$var wire 1 G \inst2~combout\ $end
$var wire 1 H \ALT_INV_inst2~combout\ $end
$var wire 1 I \ALT_INV_inst15~q\ $end
$var wire 1 J \ALT_INV_inst16~q\ $end
$upscope $end
$upscope $end
$enddefinitions $end
#0
$dumpvars
0!
1"
0#
0$
0%
0&
1'
0(
1)
x*
1+
1,
1-
1.
1/
10
11
02
03
04
05
06
17
18
09
0:
0;
0<
1=
0>
1?
1@
0A
1B
0C
0D
0E
0F
0G
1H
1I
1J
$end
#5000
1!
12
1>
1A
0I
0?
1F
1G
0H
0@
1<
0=
16
07
1&
0'
#10000
0!
02
0>
#15000
1!
12
1>
0A
1I
1?
0F
0G
1C
1H
1@
0J
0B
1E
1G
0H
0<
1=
1;
06
08
17
15
0&
1:
01
1'
1%
0=
14
0"
07
1$
0'
#20000
0!
02
0>
#25000
1!
12
1>
1A
0I
0?
1D
0E
0@
0:
19
04
13
0$
1#
#30000
0!
02
0>
#35000
1!
12
1>
0A
1I
1?
0D
1E
0C
1@
1J
1B
0E
0G
1H
1:
09
0;
14
03
18
05
1$
0#
0:
11
0%
1=
04
1"
17
0$
1'
#40000
0!
02
0>
#45000
1!
12
1>
1A
0I
0?
1F
1G
0H
0@
1<
0=
16
07
1&
0'
#50000
0!
02
0>
#55000
1!
12
1>
0A
1I
1?
0F
0G
1C
1H
1@
0J
0B
1E
1G
0H
0<
1=
1;
06
08
17
15
0&
1:
01
1'
1%
0=
14
0"
07
1$
0'
#60000
0!
02
0>
#65000
1!
12
1>
1A
0I
0?
1D
0E
0@
0:
19
04
13
0$
1#
#70000
0!
02
0>
#75000
1!
12
1>
0A
1I
1?
0D
1E
0C
1@
1J
1B
0E
0G
1H
1:
09
0;
14
03
18
05
1$
0#
0:
11
0%
1=
04
1"
17
0$
1'
#80000
0!
02
0>
#85000
1!
12
1>
1A
0I
0?
1F
1G
0H
0@
1<
0=
16
07
1&
0'
#90000
0!
02
0>
#95000
1!
12
1>
0A
1I
1?
0F
0G
1C
1H
1@
0J
0B
1E
1G
0H
0<
1=
1;
06
08
17
15
0&
1:
01
1'
1%
0=
14
0"
07
1$
0'
#100000
0!
02
0>
#105000
1!
12
1>
1A
0I
0?
1D
0E
0@
0:
19
04
13
0$
1#
#110000
0!
02
0>
#115000
1!
12
1>
0A
1I
1?
0D
1E
0C
1@
1J
1B
0E
0G
1H
1:
09
0;
14
03
18
05
1$
0#
0:
11
0%
1=
04
1"
17
0$
1'
#120000
0!
02
0>
#125000
1!
12
1>
1A
0I
0?
1F
1G
0H
0@
1<
0=
16
07
1&
0'
#130000
0!
02
0>
#135000
1!
12
1>
0A
1I
1?
0F
0G
1C
1H
1@
0J
0B
1E
1G
0H
0<
1=
1;
06
08
17
15
0&
1:
01
1'
1%
0=
14
0"
07
1$
0'
#140000
0!
02
0>
#145000
1!
12
1>
1A
0I
0?
1D
0E
0@
0:
19
04
13
0$
1#
#150000
0!
02
0>
#155000
1!
12
1>
0A
1I
1?
0D
1E
0C
1@
1J
1B
0E
0G
1H
1:
09
0;
14
03
18
05
1$
0#
0:
11
0%
1=
04
1"
17
0$
1'
#160000
0!
02
0>
#165000
1!
12
1>
1A
0I
0?
1F
1G
0H
0@
1<
0=
16
07
1&
0'
#170000
0!
02
0>
#175000
1!
12
1>
0A
1I
1?
0F
0G
1C
1H
1@
0J
0B
1E
1G
0H
0<
1=
1;
06
08
17
15
0&
1:
01
1'
1%
0=
14
0"
07
1$
0'
#180000
0!
02
0>
#185000
1!
12
1>
1A
0I
0?
1D
0E
0@
0:
19
04
13
0$
1#
#190000
0!
02
0>
#195000
1!
12
1>
0A
1I
1?
0D
1E
0C
1@
1J
1B
0E
0G
1H
1:
09
0;
14
03
18
05
1$
0#
0:
11
0%
1=
04
1"
17
0$
1'
#200000
0!
02
0>
#205000
1!
12
1>
1A
0I
0?
1F
1G
0H
0@
1<
0=
16
07
1&
0'
#210000
0!
02
0>
#215000
1!
12
1>
0A
1I
1?
0F
0G
1C
1H
1@
0J
0B
1E
1G
0H
0<
1=
1;
06
08
17
15
0&
1:
01
1'
1%
0=
14
0"
07
1$
0'
#220000
0!
02
0>
#225000
1!
12
1>
1A
0I
0?
1D
0E
0@
0:
19
04
13
0$
1#
#230000
0!
02
0>
#235000
1!
12
1>
0A
1I
1?
0D
1E
0C
1@
1J
1B
0E
0G
1H
1:
09
0;
14
03
18
05
1$
0#
0:
11
0%
1=
04
1"
17
0$
1'
#240000
0!
02
0>
#245000
1!
12
1>
1A
0I
0?
1F
1G
0H
0@
1<
0=
16
07
1&
0'
#250000
0!
02
0>
#255000
1!
12
1>
0A
1I
1?
0F
0G
1C
1H
1@
0J
0B
1E
1G
0H
0<
1=
1;
06
08
17
15
0&
1:
01
1'
1%
0=
14
0"
07
1$
0'
#260000
0!
02
0>
#265000
1!
12
1>
1A
0I
0?
1D
0E
0@
0:
19
04
13
0$
1#
#270000
0!
02
0>
#275000
1!
12
1>
0A
1I
1?
0D
1E
0C
1@
1J
1B
0E
0G
1H
1:
09
0;
14
03
18
05
1$
0#
0:
11
0%
1=
04
1"
17
0$
1'
#280000
0!
02
0>
#285000
1!
12
1>
1A
0I
0?
1F
1G
0H
0@
1<
0=
16
07
1&
0'
#290000
0!
02
0>
#295000
1!
12
1>
0A
1I
1?
0F
0G
1C
1H
1@
0J
0B
1E
1G
0H
0<
1=
1;
06
08
17
15
0&
1:
01
1'
1%
0=
14
0"
07
1$
0'
#300000
0!
02
0>
#305000
1!
12
1>
1A
0I
0?
1D
0E
0@
0:
19
04
13
0$
1#
#310000
0!
02
0>
#315000
1!
12
1>
0A
1I
1?
0D
1E
0C
1@
1J
1B
0E
0G
1H
1:
09
0;
14
03
18
05
1$
0#
0:
11
0%
1=
04
1"
17
0$
1'
#320000
0!
02
0>
#325000
1!
12
1>
1A
0I
0?
1F
1G
0H
0@
1<
0=
16
07
1&
0'
#330000
0!
02
0>
#335000
1!
12
1>
0A
1I
1?
0F
0G
1C
1H
1@
0J
0B
1E
1G
0H
0<
1=
1;
06
08
17
15
0&
1:
01
1'
1%
0=
14
0"
07
1$
0'
#340000
0!
02
0>
#345000
1!
12
1>
1A
0I
0?
1D
0E
0@
0:
19
04
13
0$
1#
#350000
0!
02
0>
#355000
1!
12
1>
0A
1I
1?
0D
1E
0C
1@
1J
1B
0E
0G
1H
1:
09
0;
14
03
18
05
1$
0#
0:
11
0%
1=
04
1"
17
0$
1'
#360000
0!
02
0>
#365000
1!
12
1>
1A
0I
0?
1F
1G
0H
0@
1<
0=
16
07
1&
0'
#370000
0!
02
0>
#375000
1!
12
1>
0A
1I
1?
0F
0G
1C
1H
1@
0J
0B
1E
1G
0H
0<
1=
1;
06
08
17
15
0&
1:
01
1'
1%
0=
14
0"
07
1$
0'
#380000
0!
02
0>
#385000
1!
12
1>
1A
0I
0?
1D
0E
0@
0:
19
04
13
0$
1#
#390000
0!
02
0>
#395000
1!
12
1>
0A
1I
1?
0D
1E
0C
1@
1J
1B
0E
0G
1H
1:
09
0;
14
03
18
05
1$
0#
0:
11
0%
1=
04
1"
17
0$
1'
#400000
0!
02
0>
#405000
1!
12
1>
1A
0I
0?
1F
1G
0H
0@
1<
0=
16
07
1&
0'
#410000
0!
02
0>
#415000
1!
12
1>
0A
1I
1?
0F
0G
1C
1H
1@
0J
0B
1E
1G
0H
0<
1=
1;
06
08
17
15
0&
1:
01
1'
1%
0=
14
0"
07
1$
0'
#420000
0!
02
0>
#425000
1!
12
1>
1A
0I
0?
1D
0E
0@
0:
19
04
13
0$
1#
#430000
0!
02
0>
#435000
1!
12
1>
0A
1I
1?
0D
1E
0C
1@
1J
1B
0E
0G
1H
1:
09
0;
14
03
18
05
1$
0#
0:
11
0%
1=
04
1"
17
0$
1'
#440000
0!
02
0>
#445000
1!
12
1>
1A
0I
0?
1F
1G
0H
0@
1<
0=
16
07
1&
0'
#450000
0!
02
0>
#455000
1!
12
1>
0A
1I
1?
0F
0G
1C
1H
1@
0J
0B
1E
1G
0H
0<
1=
1;
06
08
17
15
0&
1:
01
1'
1%
0=
14
0"
07
1$
0'
#460000
0!
02
0>
#465000
1!
12
1>
1A
0I
0?
1D
0E
0@
0:
19
04
13
0$
1#
#470000
0!
02
0>
#475000
1!
12
1>
0A
1I
1?
0D
1E
0C
1@
1J
1B
0E
0G
1H
1:
09
0;
14
03
18
05
1$
0#
0:
11
0%
1=
04
1"
17
0$
1'
#480000
0!
02
0>
#485000
1!
12
1>
1A
0I
0?
1F
1G
0H
0@
1<
0=
16
07
1&
0'
#490000
0!
02
0>
#495000
1!
12
1>
0A
1I
1?
0F
0G
1C
1H
1@
0J
0B
1E
1G
0H
0<
1=
1;
06
08
17
15
0&
1:
01
1'
1%
0=
14
0"
07
1$
0'
#500000
0!
02
0>
#505000
1!
12
1>
1A
0I
0?
1D
0E
0@
0:
19
04
13
0$
1#
#510000
0!
02
0>
#515000
1!
12
1>
0A
1I
1?
0D
1E
0C
1@
1J
1B
0E
0G
1H
1:
09
0;
14
03
18
05
1$
0#
0:
11
0%
1=
04
1"
17
0$
1'
#520000
0!
02
0>
#525000
1!
12
1>
1A
0I
0?
1F
1G
0H
0@
1<
0=
16
07
1&
0'
#530000
0!
02
0>
#535000
1!
12
1>
0A
1I
1?
0F
0G
1C
1H
1@
0J
0B
1E
1G
0H
0<
1=
1;
06
08
17
15
0&
1:
01
1'
1%
0=
14
0"
07
1$
0'
#540000
0!
02
0>
#545000
1!
12
1>
1A
0I
0?
1D
0E
0@
0:
19
04
13
0$
1#
#550000
0!
02
0>
#555000
1!
12
1>
0A
1I
1?
0D
1E
0C
1@
1J
1B
0E
0G
1H
1:
09
0;
14
03
18
05
1$
0#
0:
11
0%
1=
04
1"
17
0$
1'
#560000
0!
02
0>
#565000
1!
12
1>
1A
0I
0?
1F
1G
0H
0@
1<
0=
16
07
1&
0'
#570000
0!
02
0>
#575000
1!
12
1>
0A
1I
1?
0F
0G
1C
1H
1@
0J
0B
1E
1G
0H
0<
1=
1;
06
08
17
15
0&
1:
01
1'
1%
0=
14
0"
07
1$
0'
#580000
0!
02
0>
#585000
1!
12
1>
1A
0I
0?
1D
0E
0@
0:
19
04
13
0$
1#
#590000
0!
02
0>
#595000
1!
12
1>
0A
1I
1?
0D
1E
0C
1@
1J
1B
0E
0G
1H
1:
09
0;
14
03
18
05
1$
0#
0:
11
0%
1=
04
1"
17
0$
1'
#600000
0!
02
0>
#605000
1!
12
1>
1A
0I
0?
1F
1G
0H
0@
1<
0=
16
07
1&
0'
#610000
0!
02
0>
#615000
1!
12
1>
0A
1I
1?
0F
0G
1C
1H
1@
0J
0B
1E
1G
0H
0<
1=
1;
06
08
17
15
0&
1:
01
1'
1%
0=
14
0"
07
1$
0'
#620000
0!
02
0>
#625000
1!
12
1>
1A
0I
0?
1D
0E
0@
0:
19
04
13
0$
1#
#630000
0!
02
0>
#635000
1!
12
1>
0A
1I
1?
0D
1E
0C
1@
1J
1B
0E
0G
1H
1:
09
0;
14
03
18
05
1$
0#
0:
11
0%
1=
04
1"
17
0$
1'
#640000
0!
02
0>
#645000
1!
12
1>
1A
0I
0?
1F
1G
0H
0@
1<
0=
16
07
1&
0'
#650000
0!
02
0>
#655000
1!
12
1>
0A
1I
1?
0F
0G
1C
1H
1@
0J
0B
1E
1G
0H
0<
1=
1;
06
08
17
15
0&
1:
01
1'
1%
0=
14
0"
07
1$
0'
#660000
0!
02
0>
#665000
1!
12
1>
1A
0I
0?
1D
0E
0@
0:
19
04
13
0$
1#
#670000
0!
02
0>
#675000
1!
12
1>
0A
1I
1?
0D
1E
0C
1@
1J
1B
0E
0G
1H
1:
09
0;
14
03
18
05
1$
0#
0:
11
0%
1=
04
1"
17
0$
1'
#680000
0!
02
0>
#685000
1!
12
1>
1A
0I
0?
1F
1G
0H
0@
1<
0=
16
07
1&
0'
#690000
0!
02
0>
#695000
1!
12
1>
0A
1I
1?
0F
0G
1C
1H
1@
0J
0B
1E
1G
0H
0<
1=
1;
06
08
17
15
0&
1:
01
1'
1%
0=
14
0"
07
1$
0'
#700000
0!
02
0>
#705000
1!
12
1>
1A
0I
0?
1D
0E
0@
0:
19
04
13
0$
1#
#710000
0!
02
0>
#715000
1!
12
1>
0A
1I
1?
0D
1E
0C
1@
1J
1B
0E
0G
1H
1:
09
0;
14
03
18
05
1$
0#
0:
11
0%
1=
04
1"
17
0$
1'
#720000
0!
02
0>
#725000
1!
12
1>
1A
0I
0?
1F
1G
0H
0@
1<
0=
16
07
1&
0'
#730000
0!
02
0>
#735000
1!
12
1>
0A
1I
1?
0F
0G
1C
1H
1@
0J
0B
1E
1G
0H
0<
1=
1;
06
08
17
15
0&
1:
01
1'
1%
0=
14
0"
07
1$
0'
#740000
0!
02
0>
#745000
1!
12
1>
1A
0I
0?
1D
0E
0@
0:
19
04
13
0$
1#
#750000
0!
02
0>
#755000
1!
12
1>
0A
1I
1?
0D
1E
0C
1@
1J
1B
0E
0G
1H
1:
09
0;
14
03
18
05
1$
0#
0:
11
0%
1=
04
1"
17
0$
1'
#760000
0!
02
0>
#765000
1!
12
1>
1A
0I
0?
1F
1G
0H
0@
1<
0=
16
07
1&
0'
#770000
0!
02
0>
#775000
1!
12
1>
0A
1I
1?
0F
0G
1C
1H
1@
0J
0B
1E
1G
0H
0<
1=
1;
06
08
17
15
0&
1:
01
1'
1%
0=
14
0"
07
1$
0'
#780000
0!
02
0>
#785000
1!
12
1>
1A
0I
0?
1D
0E
0@
0:
19
04
13
0$
1#
#790000
0!
02
0>
#795000
1!
12
1>
0A
1I
1?
0D
1E
0C
1@
1J
1B
0E
0G
1H
1:
09
0;
14
03
18
05
1$
0#
0:
11
0%
1=
04
1"
17
0$
1'
#800000
0!
02
0>
#805000
1!
12
1>
1A
0I
0?
1F
1G
0H
0@
1<
0=
16
07
1&
0'
#810000
0!
02
0>
#815000
1!
12
1>
0A
1I
1?
0F
0G
1C
1H
1@
0J
0B
1E
1G
0H
0<
1=
1;
06
08
17
15
0&
1:
01
1'
1%
0=
14
0"
07
1$
0'
#820000
0!
02
0>
#825000
1!
12
1>
1A
0I
0?
1D
0E
0@
0:
19
04
13
0$
1#
#830000
0!
02
0>
#835000
1!
12
1>
0A
1I
1?
0D
1E
0C
1@
1J
1B
0E
0G
1H
1:
09
0;
14
03
18
05
1$
0#
0:
11
0%
1=
04
1"
17
0$
1'
#840000
0!
02
0>
#845000
1!
12
1>
1A
0I
0?
1F
1G
0H
0@
1<
0=
16
07
1&
0'
#850000
0!
02
0>
#855000
1!
12
1>
0A
1I
1?
0F
0G
1C
1H
1@
0J
0B
1E
1G
0H
0<
1=
1;
06
08
17
15
0&
1:
01
1'
1%
0=
14
0"
07
1$
0'
#860000
0!
02
0>
#865000
1!
12
1>
1A
0I
0?
1D
0E
0@
0:
19
04
13
0$
1#
#870000
0!
02
0>
#875000
1!
12
1>
0A
1I
1?
0D
1E
0C
1@
1J
1B
0E
0G
1H
1:
09
0;
14
03
18
05
1$
0#
0:
11
0%
1=
04
1"
17
0$
1'
#880000
0!
02
0>
#885000
1!
12
1>
1A
0I
0?
1F
1G
0H
0@
1<
0=
16
07
1&
0'
#890000
0!
02
0>
#895000
1!
12
1>
0A
1I
1?
0F
0G
1C
1H
1@
0J
0B
1E
1G
0H
0<
1=
1;
06
08
17
15
0&
1:
01
1'
1%
0=
14
0"
07
1$
0'
#900000
0!
02
0>
#905000
1!
12
1>
1A
0I
0?
1D
0E
0@
0:
19
04
13
0$
1#
#910000
0!
02
0>
#915000
1!
12
1>
0A
1I
1?
0D
1E
0C
1@
1J
1B
0E
0G
1H
1:
09
0;
14
03
18
05
1$
0#
0:
11
0%
1=
04
1"
17
0$
1'
#920000
0!
02
0>
#925000
1!
12
1>
1A
0I
0?
1F
1G
0H
0@
1<
0=
16
07
1&
0'
#930000
0!
02
0>
#935000
1!
12
1>
0A
1I
1?
0F
0G
1C
1H
1@
0J
0B
1E
1G
0H
0<
1=
1;
06
08
17
15
0&
1:
01
1'
1%
0=
14
0"
07
1$
0'
#940000
0!
02
0>
#945000
1!
12
1>
1A
0I
0?
1D
0E
0@
0:
19
04
13
0$
1#
#950000
0!
02
0>
#955000
1!
12
1>
0A
1I
1?
0D
1E
0C
1@
1J
1B
0E
0G
1H
1:
09
0;
14
03
18
05
1$
0#
0:
11
0%
1=
04
1"
17
0$
1'
#960000
0!
02
0>
#965000
1!
12
1>
1A
0I
0?
1F
1G
0H
0@
1<
0=
16
07
1&
0'
#970000
0!
02
0>
#975000
1!
12
1>
0A
1I
1?
0F
0G
1C
1H
1@
0J
0B
1E
1G
0H
0<
1=
1;
06
08
17
15
0&
1:
01
1'
1%
0=
14
0"
07
1$
0'
#980000
0!
02
0>
#985000
1!
12
1>
1A
0I
0?
1D
0E
0@
0:
19
04
13
0$
1#
#990000
0!
02
0>
#995000
1!
12
1>
0A
1I
1?
0D
1E
0C
1@
1J
1B
0E
0G
1H
1:
09
0;
14
03
18
05
1$
0#
0:
11
0%
1=
04
1"
17
0$
1'
